{
    "id": "4e24c9ee-3bdb-406b-9e34-8ae46228efa5",
    "schema": "https://metadata.datadrivendiscovery.org/schemas/v0/pipeline.json",
    "created": "2019-11-26T02:03:46.276836Z",
    "inputs": [
        {
            "name": "inputs"
        }
    ],
    "outputs": [
        {
            "data": "steps.1.produce",
            "name": "output"
        }
    ],
    "steps": [
        {
            "type": "PRIMITIVE",
            "primitive": {
                "id": "ae0797506-ea7b-4a7f-a7e4-2f91e2082f05",
                "version": "0.1.1",
                "python_path": "d3m.primitives.data_transformation.load_graphs.DistilGraphLoader",
                "name": "Load graphs into a parseable object"
            },
            "arguments": {
                "inputs": {
                    "type": "CONTAINER",
                    "data": "inputs.0"
                }
            },
            "outputs": [
                {
                    "id": "produce"
                },
                {
                    "id": "produce_target"
                }
            ]
        },
        {
            "type": "PRIMITIVE",
            "primitive": {
                "id": "8baea8e6-9d3a-46d7-acf1-04fd593dcd37",
                "version": "0.1.0",
                "python_path": "d3m.primitives.graph_matching.seeded_graph_matcher.DistilSeededGraphMatcher",
                "name": "SeededGraphMatcher"
            },
            "arguments": {
                "inputs": {
                    "type": "CONTAINER",
                    "data": "steps.0.produce"
                },
                "outputs": {
                    "type": "CONTAINER",
                    "data": "steps.0.produce_target"
                }
            },
            "outputs": [
                {
                    "id": "produce"
                }
            ],
            "hyperparams": {
                "metric": {
                    "type": "VALUE",
                    "data": "accuracy"
                }
            }
        }
    ],
    "digest": "3c63ea1b49fbe1031c9ff3b934473ca6f6d6cf83bcdfbe3b608982f02dc77cba"
}
